{
    "app_categories": {
        "Connectivity": "Tillslutningsmuligheder",
        "Development": "Udvikling",
        "Games": "Spil",
        "Graphics": "Grafik",
        "Internet": "Internet",
        "Money": "Penge",
        "Multimedia": "Multimedier",
        "Navigation": "Navigation",
        "Phone & SMS": "Telefon og SMS",
        "Reading": "Læsning",
        "Science & Education": "Videnskab og uddannelse",
        "Security": "Sikkerhed",
        "Sports & Health": "Sport og sundhed",
        "System": "System",
        "Theming": "Temaer",
        "Time": "Tid",
        "Writing": "Skrivning",
        "show_all_packages": "Vis alle %d"
    }
}
